27 Nov 2021 11:12:49,529  INFO Sandbox:sandbox.Sandbox.main(Sandbox.java:61) - Starting
27 Nov 2021 11:12:49,801  INFO Sandbox:sandbox.SandboxParameters.<init>(SandboxParameters.java:340) - dmh1125 Instantiating sandbox.SandboxParameters
27 Nov 2021 11:12:49,837  INFO Sandbox:sandbox.SandboxParameters.printLine(SandboxParameters.java:1123) - Loaded sandbox system configuration file at 27Nov21 11:12:49.0000819
27 Nov 2021 11:12:49,849  INFO Sandbox:sandbox.SandboxParameters.printLine(SandboxParameters.java:1143) - Could not load properties from XML configuration file - 1
	java.io.FileInputStream.open0(Native Method)
	java.io.FileInputStream.open(Unknown Source)
	java.io.FileInputStream.<init>(Unknown Source)
	sandbox.SandboxParameters.<init>(SandboxParameters.java:416)
	sandbox.SandboxParameters.createSandboxParameters(SandboxParameters.java:219)
	sandbox.SandboxFrameBase.<init>(SandboxFrameBase.java:94)
	sandbox.SandboxTest.<init>(SandboxTest.java:19)
	sandbox.Sandbox.<init>(Sandbox.java:28)
	sandbox.Sandbox$1.run(Sandbox.java:70)
	java.awt.event.InvocationEvent.dispatch(Unknown Source)
	java.awt.EventQueue.dispatchEventImpl(Unknown Source)
	java.awt.EventQueue.access$500(Unknown Source)
	java.awt.EventQueue$3.run(Unknown Source)
	java.awt.EventQueue$3.run(Unknown Source)
	java.security.AccessController.doPrivileged(Native Method)
	java.security.ProtectionDomain$JavaSecurityAccessImpl.doIntersectionPrivilege(Unknown Source)
	java.awt.EventQueue.dispatchEvent(Unknown Source)
	java.awt.EventDispatchThread.pumpOneEventForFilters(Unknown Source)
	java.awt.EventDispatchThread.pumpEventsForFilter(Unknown Source)
	java.awt.EventDispatchThread.pumpEventsForHierarchy(Unknown Source)
	java.awt.EventDispatchThread.pumpEvents(Unknown Source)
	java.awt.EventDispatchThread.pumpEvents(Unknown Source)
	java.awt.EventDispatchThread.run(Unknown Source)
	
27 Nov 2021 11:12:49,864  INFO Sandbox:sandbox.SandboxParameters.printLine(SandboxParameters.java:1123) - Attempting to load from backup properties file: C:\Users\carls\GIT\hippocanvas\Sandbox\start\windows\home\sandbox.test\sandbox.properties
27 Nov 2021 11:12:49,865  INFO Sandbox:sandbox.SandboxParameters.printLine(SandboxParameters.java:1123) - Successfully loaded from properties configuration file.
27 Nov 2021 11:12:49,865  INFO Sandbox:sandbox.SandboxParameters.printLine(SandboxParameters.java:1123) - Loading from default configuration file: sandbox.test\sandbox.properties
27 Nov 2021 11:12:49,865  INFO Sandbox:sandbox.SandboxParameters.printLine(SandboxParameters.java:1143) - Could not load properties from configuration file
	java.io.FileInputStream.open0(Native Method)
	java.io.FileInputStream.open(Unknown Source)
	java.io.FileInputStream.<init>(Unknown Source)
	sandbox.SandboxParameters.<init>(SandboxParameters.java:472)
	sandbox.SandboxParameters.createSandboxParameters(SandboxParameters.java:219)
	sandbox.SandboxFrameBase.<init>(SandboxFrameBase.java:94)
	sandbox.SandboxTest.<init>(SandboxTest.java:19)
	sandbox.Sandbox.<init>(Sandbox.java:28)
	sandbox.Sandbox$1.run(Sandbox.java:70)
	java.awt.event.InvocationEvent.dispatch(Unknown Source)
	java.awt.EventQueue.dispatchEventImpl(Unknown Source)
	java.awt.EventQueue.access$500(Unknown Source)
	java.awt.EventQueue$3.run(Unknown Source)
	java.awt.EventQueue$3.run(Unknown Source)
	java.security.AccessController.doPrivileged(Native Method)
	java.security.ProtectionDomain$JavaSecurityAccessImpl.doIntersectionPrivilege(Unknown Source)
	java.awt.EventQueue.dispatchEvent(Unknown Source)
	java.awt.EventDispatchThread.pumpOneEventForFilters(Unknown Source)
	java.awt.EventDispatchThread.pumpEventsForFilter(Unknown Source)
	java.awt.EventDispatchThread.pumpEventsForHierarchy(Unknown Source)
	java.awt.EventDispatchThread.pumpEvents(Unknown Source)
	java.awt.EventDispatchThread.pumpEvents(Unknown Source)
	java.awt.EventDispatchThread.run(Unknown Source)
	
27 Nov 2021 11:12:49,866  INFO Sandbox:sandbox.SandboxParameters.<init>(SandboxParameters.java:555) - Using standard colors
27 Nov 2021 11:12:49,935  INFO Sandbox:sandbox.SandboxParameters.printLine(SandboxParameters.java:1123) - Loading version 1.0 configuration
27 Nov 2021 11:12:49,936  INFO Sandbox:sandbox.SandboxParameters.printLine(SandboxParameters.java:1123) - filepath = C:\Users\carls\GIT\hippocanvas\Sandbox\start\windows\home\sandbox.test\environment.xml
27 Nov 2021 11:12:49,941  INFO Sandbox:sandbox.SandboxParameters.printLine(SandboxParameters.java:1123) - sbx.advice.uh.oh.a.null,^.*java\.lang\.NullPointerException.*$__Got+a+null+thing+going
27 Nov 2021 11:12:49,942  INFO Sandbox:sandbox.SandboxParameters.printLine(SandboxParameters.java:1123) - sbx.directory.git,/home/dharter/GIT/
27 Nov 2021 11:12:49,943  INFO Sandbox:sandbox.SandboxParameters.printLine(SandboxParameters.java:1123) - sbx.kbd.f6,SBX-FUNC-TEXT__%3D%3D%3D%3D%3D%3D%3D%3D%3D%3D%3D%3D%3D%3D%3D%3D%3D%3D%3D%3D%3D%3D%3D%3D%3D%3D%3D%3D%3D%3D%3D%3D%3D%3D%3D%3D%3D%3D%3D%3D%3D
27 Nov 2021 11:12:49,943  INFO Sandbox:sandbox.SandboxParameters.printLine(SandboxParameters.java:1123) - sbx.kbd.f5,SBX-FUNC-TEXT__+%2F*SBC+comment+SBC*%2F
27 Nov 2021 11:12:49,943  INFO Sandbox:sandbox.SandboxParameters.printLine(SandboxParameters.java:1123) - sbx.kbd.f4,SBX-FUNC-TEXT__%7Bsbx-tsh+ddMMMyy_hh.mm.ss%7D
27 Nov 2021 11:12:49,944  INFO Sandbox:sandbox.SandboxParameters.printLine(SandboxParameters.java:1123) - sbx.kbd.f3,SBX-FUNC-TEXT__SANDBOXDIRECTORY
27 Nov 2021 11:12:49,947  INFO Sandbox:sandbox.SandboxParameters.printLine(SandboxParameters.java:1123) - sbx.kbd.f2,SBX-FUNC-TEST__Tool156
27 Nov 2021 11:12:49,947  INFO Sandbox:sandbox.SandboxParameters.printLine(SandboxParameters.java:1123) - sbx.kbd.f1,SBX-FUNC-TEST__Tool155
27 Nov 2021 11:12:49,948  INFO Sandbox:sandbox.SandboxParameters.printLine(SandboxParameters.java:1123) - sbx.git.shared.home.directory,/home/dharter/GIT/Sandbox/NewSandbox/shared/
27 Nov 2021 11:12:49,948  INFO Sandbox:sandbox.SandboxParameters.printLine(SandboxParameters.java:1123) - sbx.advice.tool4.focus,^.*Tool4.*java\.lang\.ArrayIndexOutOfBoundsException.*$__Focus+on+an+actual+sandbox+map+id
27 Nov 2021 11:12:49,948  INFO Sandbox:sandbox.SandboxParameters.printLine(SandboxParameters.java:1123) - sbx.advice.client.need.tunneling,^.*unexpected.EOF.while.looking.for.matching.*$__You+might+have+a+URL+that+needs+to+be+URL-encoded
27 Nov 2021 11:12:49,949  INFO Sandbox:sandbox.SandboxParameters.printLine(SandboxParameters.java:1123) - sbx.kbd.f12,SBX-FUNC-TIME__+%28ddMMMyy_HH.mm.ss%29+
27 Nov 2021 11:12:49,949  INFO Sandbox:sandbox.SandboxParameters.printLine(SandboxParameters.java:1123) - sbx.visible.row.count,50
27 Nov 2021 11:12:49,949  INFO Sandbox:sandbox.SandboxParameters.printLine(SandboxParameters.java:1123) - sbx.mouse.button.three.click.two.test,Tool2
27 Nov 2021 11:12:49,949  INFO Sandbox:sandbox.SandboxParameters.printLine(SandboxParameters.java:1123) - sbx.conf.listFixedHeight,15
27 Nov 2021 11:12:49,950  INFO Sandbox:sandbox.SandboxParameters.printLine(SandboxParameters.java:1123) - sbx.open.command.url.ascii.encoded,gvfs-open
27 Nov 2021 11:12:49,950  INFO Sandbox:sandbox.SandboxParameters.printLine(SandboxParameters.java:1123) - sbx.conf.listFont,Dialog_2_12
27 Nov 2021 11:12:49,950  INFO Sandbox:sandbox.SandboxParameters.printLine(SandboxParameters.java:1123) - sbx.confirm.git.pull,git.*pull
27 Nov 2021 11:12:49,951  INFO Sandbox:sandbox.SandboxParameters.printLine(SandboxParameters.java:1123) - sandbox.conf.borderColor,0_255_0
27 Nov 2021 11:12:49,951  INFO Sandbox:sandbox.SandboxParameters.printLine(SandboxParameters.java:1123) - sbx.mouse.button.three.click.one.select,true
27 Nov 2021 11:12:49,951  INFO Sandbox:sandbox.SandboxParameters.printLine(SandboxParameters.java:1123) - sbx.confirm.git.reset,git.*reset
27 Nov 2021 11:12:49,951  INFO Sandbox:sandbox.SandboxParameters.printLine(SandboxParameters.java:1123) - sbx.confirm.rm.directory,rm.*\-rf
27 Nov 2021 11:12:49,952  INFO Sandbox:sandbox.SandboxParameters.printLine(SandboxParameters.java:1123) - sbx.zone.id,America/New_York
27 Nov 2021 11:12:49,953  INFO Sandbox:sandbox.SandboxParameters.printLine(SandboxParameters.java:1123) - Could not delete C:\Users\carls\GIT\hippocanvas\Sandbox\start\windows\home\sandbox.test\sandbox.properties
27 Nov 2021 11:12:50,007  INFO Sandbox:sandbox.SandboxParameters.printLine(SandboxParameters.java:1123) - Added special case tool class sandbox.Command to tests
27 Nov 2021 11:12:50,010  INFO Sandbox:sandbox.SandboxParameters.printLine(SandboxParameters.java:1123) - Added special case tool class sandbox.SmartOpen to tests
27 Nov 2021 11:12:50,013  INFO Sandbox:sandbox.SandboxParameters.printLine(SandboxParameters.java:1123) - Added special case tool class sandbox.FindInFiles to tests
27 Nov 2021 11:12:50,015  INFO Sandbox:sandbox.SandboxParameters.printLine(SandboxParameters.java:1123) - Added special case tool class sandbox.RunProcess to tests
27 Nov 2021 11:12:50,154  INFO Sandbox:sandbox.SandboxParameters.printLine(SandboxParameters.java:1123) - Pulling commands from C:\Users\carls\GIT\hippocanvas\Sandbox\commands\Windows
27 Nov 2021 11:13:02,579  INFO Sandbox:sandbox.SandboxFrameBase.closeSandbox(SandboxFrameBase.java:1600) - Number of connections closed: 0
27 Nov 2021 11:13:47,377  INFO Sandbox:sandbox.Sandbox.main(Sandbox.java:61) - Starting
27 Nov 2021 11:13:47,586  INFO Sandbox:sandbox.SandboxParameters.<init>(SandboxParameters.java:340) - dmh1125 Instantiating sandbox.SandboxParameters
27 Nov 2021 11:13:47,618  INFO Sandbox:sandbox.SandboxParameters.printLine(SandboxParameters.java:1123) - Loaded sandbox system configuration file at 27Nov21 11:13:47.0000600
27 Nov 2021 11:13:47,886  INFO Sandbox:sandbox.SandboxParameters.printLine(SandboxParameters.java:1123) - filepath = C:\Users\carls\GIT\hippocanvas\Sandbox\start\windows\home\sandbox\environment.xml
27 Nov 2021 11:13:47,889  INFO Sandbox:sandbox.SandboxParameters.printLine(SandboxParameters.java:1123) - sandbox.conf.numButtonsPerRow,24
27 Nov 2021 11:13:47,890  INFO Sandbox:sandbox.SandboxParameters.printLine(SandboxParameters.java:1123) - sandbox.conf.numRows,12
27 Nov 2021 11:13:47,890  INFO Sandbox:sandbox.SandboxParameters.printLine(SandboxParameters.java:1123) - sandbox.java.sbx.time,no
27 Nov 2021 11:13:47,890  INFO Sandbox:sandbox.SandboxParameters.printLine(SandboxParameters.java:1123) - sandbox.java.catalina.base,C:\Users\David\SANDBOX_HOME_NEW
27 Nov 2021 11:13:47,891  INFO Sandbox:sandbox.SandboxParameters.printLine(SandboxParameters.java:1123) - sandbox.conf.borderColor,255_192_192
27 Nov 2021 11:13:47,891  INFO Sandbox:sandbox.SandboxParameters.printLine(SandboxParameters.java:1123) - sandbox.class.path,.;lib\commons-lang.jar;lib\log4j-api-2.11.1.jar;lib\log4j-core-2.11.1.jar;lib\sandbox.jar;lib\commons-codec-1.3.jar;lib\commons-httpclient-3.1.jar;lib\commons-logging.jar;lib\gson-2.6.2.jar;lib\mockito-core-2.13.0.jar;lib\spring-1.2.8.jar;lib\diffutils-1.3.0.jar;C:\Users\David\SANDBOX_HOME_NEW\sandbox;C:\Users\David\SANDBOX_HOME_NEW
27 Nov 2021 11:13:47,892  INFO Sandbox:sandbox.SandboxParameters.printLine(SandboxParameters.java:1123) - sandbox.javamemory,-Xms64m -Xmx512m
27 Nov 2021 11:13:47,892  INFO Sandbox:sandbox.SandboxParameters.printLine(SandboxParameters.java:1123) - sandbox.home,C:\Users\David\SANDBOX_HOME_NEW
27 Nov 2021 11:13:47,954  INFO Sandbox:sandbox.SandboxParameters.printLine(SandboxParameters.java:1123) - Added special case tool class sandbox.Command to tests
27 Nov 2021 11:13:47,955  INFO Sandbox:sandbox.SandboxParameters.printLine(SandboxParameters.java:1123) - Added special case tool class sandbox.SmartOpen to tests
27 Nov 2021 11:13:47,957  INFO Sandbox:sandbox.SandboxParameters.printLine(SandboxParameters.java:1123) - Added special case tool class sandbox.FindInFiles to tests
27 Nov 2021 11:13:47,959  INFO Sandbox:sandbox.SandboxParameters.printLine(SandboxParameters.java:1123) - Added special case tool class sandbox.RunProcess to tests
27 Nov 2021 11:13:48,069  INFO Sandbox:sandbox.SandboxParameters.printLine(SandboxParameters.java:1123) - Pulling commands from C:\Users\carls\GIT\hippocanvas\Sandbox\commands\Windows
27 Nov 2021 11:13:53,854  INFO Sandbox:sandbox.SandboxParameters.printLine(SandboxParameters.java:1123) - sandbox.SmartOpen[95] 27Nov21 11:13:53.0000851 Start
27 Nov 2021 11:13:53,879  INFO Sandbox:sandbox.SandboxParameters.printLine(SandboxParameters.java:1123) - SmartOpen*** Running ***
27 Nov 2021 11:13:54,025  INFO Sandbox:sandbox.SandboxParameters.printLine(SandboxParameters.java:1123) - sandbox.Tool2[96] 27Nov21 11:13:54.0000024 Start
27 Nov 2021 11:13:54,048  INFO Sandbox:sandbox.SandboxParameters.printLine(SandboxParameters.java:1123) - sandbox.Tool2[96] 27Nov21 11:13:54.0000048 Stop
27 Nov 2021 11:13:54,049  INFO Sandbox:sandbox.SandboxParameters.printLine(SandboxParameters.java:1123) - sandbox.Tool2[96] 24 ms lapse
27 Nov 2021 11:13:54,224  INFO Sandbox:sandbox.SandboxParameters.printLine(SandboxParameters.java:1123) - sandbox.SmartOpen[95] 27Nov21 11:13:54.0000223 Stop
27 Nov 2021 11:13:54,225  INFO Sandbox:sandbox.SandboxParameters.printLine(SandboxParameters.java:1123) - sandbox.SmartOpen[95] 372 ms lapse
27 Nov 2021 11:14:08,978  INFO Sandbox:sandbox.SandboxFrame.<init>(SandboxFrame.java:23) - Creating a new sandbox.SandboxFrame
27 Nov 2021 11:14:09,011  INFO Sandbox:sandbox.SandboxParameters.printLine(SandboxParameters.java:1123) - Adding object with key "sandbox.SandboxMessage" to global map
27 Nov 2021 11:14:22,020  INFO Sandbox:sandbox.SandboxParameters.printLine(SandboxParameters.java:1123) - Removing sandbox.SandboxConnection@22b7c54f
27 Nov 2021 11:14:22,020  INFO Sandbox:sandbox.SandboxParameters.printLine(SandboxParameters.java:1123) - Opening "C:\Users\carls\GIT\hippocanvas\Sandbox\start\windows\home\sandbox\TODO.dmh"...
27 Nov 2021 11:14:22,020  INFO Sandbox:sandbox.SandboxParameters.printLine(SandboxParameters.java:1123) - File size: 0
27 Nov 2021 11:14:22,028  INFO Sandbox:sandbox.SandboxTextPane.<init>(SandboxTextPane.java:59) - Opening file in C:\Users\carls\GIT\hippocanvas\Sandbox\start\windows\home\sandbox\TODO.dmh
27 Nov 2021 11:14:22,030  INFO Sandbox:sandbox.SandboxParameters.printLine(SandboxParameters.java:1123) - in tab "TODO.dmh"
27 Nov 2021 11:14:22,037  INFO Sandbox:sandbox.SandboxParameters.printLine(SandboxParameters.java:1123) - Adding object with key "sandbox.SandboxTextPane" to global map
27 Nov 2021 11:14:22,038  INFO Sandbox:sandbox.SandboxParameters.printLine(SandboxParameters.java:1123) - Could not load backup properties file C:\Users\carls\GIT\hippocanvas\Sandbox\start\windows\home\sandbox\backups\backups.xml
27 Nov 2021 11:14:26,615  INFO Sandbox:sandbox.SandboxParameters.printLine(SandboxParameters.java:1123) - Parameter 4
27 Nov 2021 11:14:38,290  INFO Sandbox:sandbox.SandboxFrame.<init>(SandboxFrame.java:23) - Creating a new sandbox.SandboxFrame
27 Nov 2021 11:14:38,320  INFO Sandbox:sandbox.SandboxParameters.printLine(SandboxParameters.java:1123) - Adding object with key "sandbox.SandboxMessage" to global map
27 Nov 2021 11:14:40,322  INFO Sandbox:sandbox.SandboxParameters.printLine(SandboxParameters.java:1123) - Removing sandbox.SandboxConnection@7b53a185
27 Nov 2021 11:14:40,324  INFO Sandbox:sandbox.SandboxParameters.printLine(SandboxParameters.java:1123) - Opening "C:\Users\carls\GIT\hippocanvas\Sandbox\start\windows\home\sandbox\NOTES.dmh"...
27 Nov 2021 11:14:40,324  INFO Sandbox:sandbox.SandboxParameters.printLine(SandboxParameters.java:1123) - File size: 0
27 Nov 2021 11:14:40,326  INFO Sandbox:sandbox.SandboxTextPane.<init>(SandboxTextPane.java:59) - Opening file in C:\Users\carls\GIT\hippocanvas\Sandbox\start\windows\home\sandbox\NOTES.dmh
27 Nov 2021 11:14:40,329  INFO Sandbox:sandbox.SandboxParameters.printLine(SandboxParameters.java:1123) - in tab "NOTES.dmh"
27 Nov 2021 11:14:40,356  INFO Sandbox:sandbox.SandboxParameters.printLine(SandboxParameters.java:1123) - New key for old object sandbox.SandboxTextPane: sandbox.SandboxTextPane1638029680356
27 Nov 2021 11:14:40,357  INFO Sandbox:sandbox.SandboxParameters.printLine(SandboxParameters.java:1123) - Adding object with key "sandbox.SandboxTextPane1638029680356" to global map
27 Nov 2021 11:14:47,917  INFO Sandbox:sandbox.SandboxParameters.printLine(SandboxParameters.java:1123) - 11:16 :: Next message for sbx.time.eso.testing.reminders
27 Nov 2021 11:14:47,918  INFO Sandbox:sandbox.SandboxFrame.<init>(SandboxFrame.java:23) - Creating a new sandbox.SandboxFrame
27 Nov 2021 11:14:47,945  INFO Sandbox:sandbox.SandboxParameters.printLine(SandboxParameters.java:1123) - Adding object with key "sandbox.SandboxMessage" to global map
27 Nov 2021 11:15:04,511  INFO Sandbox:sandbox.SandboxParameters.printLine(SandboxParameters.java:1123) - Focusing
27 Nov 2021 11:15:21,209  INFO Sandbox:sandbox.SandboxParameters.printLine(SandboxParameters.java:1123) - text: true isDirty:true
27 Nov 2021 11:15:21,212  INFO Sandbox:sandbox.SandboxParameters.printLine(SandboxParameters.java:1123) - FILE SAVE ATTEMPTED:
	C:\Users\carls\GIT\hippocanvas\Sandbox\start\windows\home\sandbox\NOTES.dmh
27 Nov 2021 11:15:22,065  INFO Sandbox:sandbox.SandboxParameters.printLine(SandboxParameters.java:1123) - C:\Users\carls\GIT\hippocanvas\Sandbox\start\windows\home\sandbox\backups\TODO.dmh_27Nov21_11.14.22.sbf /*SBC File backed up: 11:15:22SBC*/
27 Nov 2021 11:15:22,258  INFO Sandbox:sandbox.SandboxParameters.printLine(SandboxParameters.java:1123) - Removing sandbox.SandboxConnection@2be606f0
27 Nov 2021 11:15:22,717  INFO Sandbox:sandbox.SandboxParameters.printLine(SandboxParameters.java:1123) - Removing sandbox.SandboxConnection@33a8f54b
27 Nov 2021 11:15:35,124  INFO Sandbox:sandbox.SandboxParameters.printLine(SandboxParameters.java:1123) - sandbox.SmartOpen[104] 27Nov21 11:15:35.0000124 Start
27 Nov 2021 11:15:35,145  INFO Sandbox:sandbox.SandboxParameters.printLine(SandboxParameters.java:1123) - SmartOpen*** Opening file ***
27 Nov 2021 11:15:35,146  INFO Sandbox:sandbox.SandboxParameters.printLine(SandboxParameters.java:1123) - sandbox.SmartOpen[104] 27Nov21 11:15:35.0000145 Stop
27 Nov 2021 11:15:35,147  INFO Sandbox:sandbox.SandboxParameters.printLine(SandboxParameters.java:1123) - File C:\Users\carls\GIT\hippocanvas\Sandbox\start\windows\home\environment.xml already exists
27 Nov 2021 11:15:35,147  INFO Sandbox:sandbox.SandboxParameters.printLine(SandboxParameters.java:1123) - sandbox.SmartOpen[104] 21 ms lapse
27 Nov 2021 11:15:35,148  INFO Sandbox:sandbox.SandboxFrame.<init>(SandboxFrame.java:23) - Creating a new sandbox.SandboxFrame
27 Nov 2021 11:15:35,168  INFO Sandbox:sandbox.SandboxParameters.printLine(SandboxParameters.java:1123) - New key for old object sandbox.SandboxMessage: sandbox.SandboxMessage1638029735168
27 Nov 2021 11:15:35,168  INFO Sandbox:sandbox.SandboxParameters.printLine(SandboxParameters.java:1123) - Adding object with key "sandbox.SandboxMessage1638029735168" to global map
27 Nov 2021 11:15:39,170  INFO Sandbox:sandbox.SandboxParameters.printLine(SandboxParameters.java:1123) - Removing sandbox.SandboxConnection@5c594cef
27 Nov 2021 11:15:39,171  INFO Sandbox:sandbox.SandboxParameters.printLine(SandboxParameters.java:1123) - File C:\Users\carls\GIT\hippocanvas\Sandbox\start\windows\home\environment.xml rejected for editing
27 Nov 2021 11:15:39,171  INFO Sandbox:sandbox.SandboxParameters.printLine(SandboxParameters.java:1123) - Opening "C:\Users\carls\GIT\hippocanvas\Sandbox\start\windows\home\environment.xml"...
27 Nov 2021 11:15:39,171  INFO Sandbox:sandbox.SandboxParameters.printLine(SandboxParameters.java:1123) - File size: 4347
27 Nov 2021 11:15:39,172  INFO Sandbox:sandbox.SandboxTextPane.<init>(SandboxTextPane.java:59) - Opening file in C:\Users\carls\GIT\hippocanvas\Sandbox\start\windows\home\environment.xml
27 Nov 2021 11:15:39,178  INFO Sandbox:sandbox.SandboxParameters.printLine(SandboxParameters.java:1123) - in tab "environment.xml"
27 Nov 2021 11:15:40,364  INFO Sandbox:sandbox.SandboxParameters.printLine(SandboxParameters.java:1123) - C:\Users\carls\GIT\hippocanvas\Sandbox\start\windows\home\sandbox\backups\NOTES.dmh_27Nov21_11.14.40.sbf /*SBC File backed up: 11:15:40SBC*/
27 Nov 2021 11:15:47,948  INFO Sandbox:sandbox.SandboxParameters.printLine(SandboxParameters.java:1123) - Removing sandbox.SandboxConnection@1712c71b
27 Nov 2021 11:16:08,387  INFO Sandbox:sandbox.SandboxFrameBase.closeSandbox(SandboxFrameBase.java:1600) - Number of connections closed: 0
01 Dec 2021 07:35:03,360  INFO Sandbox:sandbox.Sandbox.main(Sandbox.java:61) - Starting
01 Dec 2021 07:35:03,842  INFO Sandbox:sandbox.SandboxTranslatorImpl.<init>(SandboxTranslatorImpl.java:12) - Not using local SandboxTranslator
01 Dec 2021 07:35:03,891  INFO Sandbox:sandbox.SandboxParameters.<init>(SandboxParameters.java:340) - dmh1125 Instantiating sandbox.SandboxParameters
01 Dec 2021 07:35:03,954  INFO Sandbox:sandbox.SandboxParameters.printLine(SandboxParameters.java:1123) - Loaded sandbox system configuration file at 01Dec21 07:35:03.0000924
01 Dec 2021 07:35:04,603  INFO Sandbox:sandbox.SandboxParameters.printLine(SandboxParameters.java:1123) - filepath = C:\Users\carls\GIT\hippocanvas\Sandbox\start\windows\home\sandbox\environment.xml
01 Dec 2021 07:35:04,611  INFO Sandbox:sandbox.SandboxParameters.printLine(SandboxParameters.java:1123) - sandbox.conf.numButtonsPerRow,24
01 Dec 2021 07:35:04,614  INFO Sandbox:sandbox.SandboxParameters.printLine(SandboxParameters.java:1123) - sandbox.conf.numRows,12
01 Dec 2021 07:35:04,615  INFO Sandbox:sandbox.SandboxParameters.printLine(SandboxParameters.java:1123) - sandbox.java.sbx.time,no
01 Dec 2021 07:35:04,616  INFO Sandbox:sandbox.SandboxParameters.printLine(SandboxParameters.java:1123) - sandbox.java.catalina.base,C:\Users\David\SANDBOX_HOME_NEW
01 Dec 2021 07:35:04,617  INFO Sandbox:sandbox.SandboxParameters.printLine(SandboxParameters.java:1123) - sandbox.conf.borderColor,255_192_192
01 Dec 2021 07:35:04,618  INFO Sandbox:sandbox.SandboxParameters.printLine(SandboxParameters.java:1123) - sandbox.class.path,.;lib\commons-lang.jar;lib\log4j-api-2.11.1.jar;lib\log4j-core-2.11.1.jar;lib\sandbox.jar;lib\commons-codec-1.3.jar;lib\commons-httpclient-3.1.jar;lib\commons-logging.jar;lib\gson-2.6.2.jar;lib\mockito-core-2.13.0.jar;lib\spring-1.2.8.jar;lib\diffutils-1.3.0.jar;C:\Users\David\SANDBOX_HOME_NEW\sandbox;C:\Users\David\SANDBOX_HOME_NEW
01 Dec 2021 07:35:04,623  INFO Sandbox:sandbox.SandboxParameters.printLine(SandboxParameters.java:1123) - sandbox.javamemory,-Xms64m -Xmx512m
01 Dec 2021 07:35:04,628  INFO Sandbox:sandbox.SandboxParameters.printLine(SandboxParameters.java:1123) - sandbox.home,C:\Users\David\SANDBOX_HOME_NEW
01 Dec 2021 07:35:04,820  INFO Sandbox:sandbox.SandboxParameters.printLine(SandboxParameters.java:1123) - Added special case tool class sandbox.Command to tests
01 Dec 2021 07:35:04,827  INFO Sandbox:sandbox.SandboxParameters.printLine(SandboxParameters.java:1123) - Added special case tool class sandbox.SmartOpen to tests
01 Dec 2021 07:35:04,834  INFO Sandbox:sandbox.SandboxParameters.printLine(SandboxParameters.java:1123) - Added special case tool class sandbox.FindInFiles to tests
01 Dec 2021 07:35:04,838  INFO Sandbox:sandbox.SandboxParameters.printLine(SandboxParameters.java:1123) - Added special case tool class sandbox.RunProcess to tests
01 Dec 2021 07:35:05,135  INFO Sandbox:sandbox.SandboxParameters.printLine(SandboxParameters.java:1123) - Pulling commands from C:\Users\carls\GIT\hippocanvas\Sandbox\commands\Windows
01 Dec 2021 07:35:57,629  INFO Sandbox:sandbox.SandboxFrameBase.closeSandbox(SandboxFrameBase.java:1600) - Number of connections closed: 0
